/Users/300068559/workspace/vectorMigration/src/main/java/vectorClass.java
/Users/300068559/workspace/vectorMigration/src/main/java/Main.java
/Users/300068559/workspace/vectorMigration/src/main/java/AirbusProducer.java
